{
    "results": [
        {
            "vote_count": 19,
            "id": 576393,
            "video": false,
            "vote_average": 6,
            "title": "Fall in Love at First Kiss",
            "popularity": 47.17,
            "poster_path": "/wtaSH8MfJSCEIrrEX9SQuHdU5sl.jpg",
            "original_language": "zh",
            "original_title": "一吻定情",
            "genre_ids": [
                10749,
                35
            ],
            "backdrop_path": "/yY7kr7Rgvo8W0Kr3U0bMV8Zq1qM.jpg",
            "adult": false,
            "overview": "After an earthquake destroys Xiang Qin's house, she and her father move in with the family of her father's college buddy. To her surprise, her new kind and amicable aunt and uncle are the parents of her cold and distant schoolmate, Jiang Zhi Shu, a genius with an IQ of 200 whom not too long ago rejected her when she confessed her feelings for him. Will the close proximity give her a second chance to win Zhi Shu's heart? Or will her love for him end under his cold words?",
            "release_date": "2019-02-14"
        },
        {
            "vote_count": 7216,
            "id": 424694,
            "video": false,
            "vote_average": 8.1,
            "title": "Bohemian Rhapsody",
            "popularity": 46.286,
            "poster_path": "/lHu1wtNaczFPGFDTrjCSzeLPTKN.jpg",
            "original_language": "en",
            "original_title": "Bohemian Rhapsody",
            "genre_ids": [
                18,
                10402
            ],
            "backdrop_path": "/93xA62uLd5CwMOAs37eQ7vPc1iV.jpg",
            "adult": false,
            "overview": "Singer Freddie Mercury, guitarist Brian May, drummer Roger Taylor and bass guitarist John Deacon take the music world by storm when they form the rock 'n' roll band Queen in 1970. Hit songs become instant classics. When Mercury's increasingly wild lifestyle starts to spiral out of control, Queen soon faces its greatest challenge yet – finding a way to keep the band together amid the success and excess.",
            "release_date": "2018-10-24"
        },
        {
            "vote_count": 510,
            "id": 440161,
            "video": false,
            "vote_average": 7,
            "title": "The Sisters Brothers",
            "popularity": 44.838,
            "poster_path": "/7Tl2nZ6uvmxwK14Skbf9VFHEHpX.jpg",
            "original_language": "en",
            "original_title": "The Sisters Brothers",
            "genre_ids": [
                35,
                18,
                37
            ],
            "backdrop_path": "/iOa6iD7t7nv6wghPuMdZCaQSDJh.jpg",
            "adult": false,
            "overview": "Oregon, 1851. Hermann Kermit Warm, a chemist and aspiring gold prospector, keeps a profitable secret that the Commodore wants to know, so he sends the Sisters brothers, two notorious assassins, to capture him on his way to California.",
            "release_date": "2018-09-19"
        },
        {
            "vote_count": 28,
            "id": 459992,
            "video": false,
            "vote_average": 7.1,
            "title": "Long Shot",
            "popularity": 44.124,
            "poster_path": "/m2ttWZ8rMRwIMT7zA48Jo6mTkDS.jpg",
            "original_language": "en",
            "original_title": "Long Shot",
            "genre_ids": [
                35,
                10749
            ],
            "backdrop_path": "/88r25ghJzVYKq0vaOApqEOZsQlD.jpg",
            "adult": false,
            "overview": "When Fred Flarsky reunites with his first crush, one of the most influential women in the world, Charlotte Field, he charms her. As she prepares to make a run for the Presidency, Charlotte hires Fred as her speechwriter and sparks fly.",
            "release_date": "2019-05-02"
        },
        {
            "vote_count": 478,
            "id": 489925,
            "video": false,
            "vote_average": 7.4,
            "title": "Eighth Grade",
            "popularity": 39.278,
            "poster_path": "/xTa9cLhGHfQ7084UvoPQ2bBXKqd.jpg",
            "original_language": "en",
            "original_title": "Eighth Grade",
            "genre_ids": [
                35,
                18
            ],
            "backdrop_path": "/7cDZkagW1YTnT4nP1BYrLPSd04B.jpg",
            "adult": false,
            "overview": "Thirteen-year-old Kayla endures the tidal wave of contemporary suburban adolescence as she makes her way through the last week of middle school — the end of her thus far disastrous eighth grade year — before she begins high school.",
            "release_date": "2018-01-19"
        },
        {
            "vote_count": 366,
            "id": 157433,
            "video": false,
            "vote_average": 6,
            "title": "Pet Sematary",
            "popularity": 36.509,
            "poster_path": "/7SPhr7Qj39vbnfF9O2qHRYaKHAL.jpg",
            "original_language": "en",
            "original_title": "Pet Sematary",
            "genre_ids": [
                27,
                53
            ],
            "backdrop_path": "/n2aX63BmW7zIKgKJ58e6rKlSsdi.jpg",
            "adult": false,
            "overview": "Louis Creed, his wife Rachel and their two children Gage and Ellie move to a rural home where they are welcomed and enlightened about the eerie 'Pet Sematary' located nearby. After the tragedy of their cat being killed by a truck, Louis resorts to burying it in the mysterious pet cemetery, which is definitely not as it seems, as it proves to the Creeds that sometimes dead is better.",
            "release_date": "2019-04-04"
        },
        {
            "vote_count": 131,
            "id": 471507,
            "video": false,
            "vote_average": 5.8,
            "title": "Destroyer",
            "popularity": 35.843,
            "poster_path": "/sHw9gTdo43nJL82py0oaROkXXNr.jpg",
            "original_language": "en",
            "original_title": "Destroyer",
            "genre_ids": [
                53,
                80,
                18,
                28
            ],
            "backdrop_path": "/rURV5xPzt9ZxEXAc4OQmxchGyZ8.jpg",
            "adult": false,
            "overview": "Erin Bell is an LAPD detective who, as a young cop, was placed undercover with a gang in the California desert with tragic results. When the leader of that gang re-emerges many years later, she must work her way back through the remaining members and into her own history with them to finally reckon with the demons that destroyed her past.",
            "release_date": "2018-12-25"
        },
        {
            "vote_count": 33,
            "id": 514439,
            "video": false,
            "vote_average": 6.6,
            "title": "Breakthrough",
            "popularity": 35.572,
            "poster_path": "/t58dx7JIgchr9If5uxn3NmHaHoS.jpg",
            "original_language": "en",
            "original_title": "Breakthrough",
            "genre_ids": [
                18
            ],
            "backdrop_path": "/6jaNHf9ja84YG3KWMDK1nOnvGDg.jpg",
            "adult": false,
            "overview": "When he was 14, Smith drowned in Lake St. Louis and was dead for nearly an hour. According to reports at the time, CPR was performed 27 minutes to no avail. Then the youth's mother, Joyce Smith, entered the room, praying loudly. Suddenly, there was a pulse, and Smith came around.",
            "release_date": "2019-04-11"
        },
        {
            "vote_count": 6,
            "id": 524247,
            "video": false,
            "vote_average": 8.1,
            "title": "The Intruder",
            "popularity": 35.489,
            "poster_path": "/p9xKyetr0ihJ2K6HJMeXzc4IwEv.jpg",
            "original_language": "en",
            "original_title": "The Intruder",
            "genre_ids": [
                53,
                18
            ],
            "backdrop_path": "/kyegg1r5oxRCZgqU7anHYD2TJap.jpg",
            "adult": false,
            "overview": "A psychological thriller about a young married couple who buys a beautiful Napa Valley house on several acres of land only to find that the man they bought it from refuses to let go of the property.",
            "release_date": "2019-05-03"
        },
        {
            "vote_count": 129,
            "id": 498248,
            "video": false,
            "vote_average": 7.6,
            "title": "Mia and the White Lion",
            "popularity": 34.436,
            "poster_path": "/zXfwBeYe0RnqsJ0dnBoFTB4SSrG.jpg",
            "original_language": "fr",
            "original_title": "Mia et le lion blanc",
            "genre_ids": [
                12,
                18,
                10751
            ],
            "backdrop_path": "/aiyXOx5rU7UqYbToD3yDqoFY1gD.jpg",
            "adult": false,
            "overview": "A young girl from London moves to Africa with her parents where she befriends a lion cub.",
            "release_date": "2018-12-26"
        },
        {
            "vote_count": 187,
            "id": 339380,
            "video": false,
            "vote_average": 7.4,
            "title": "On the Basis of Sex",
            "popularity": 33.469,
            "poster_path": "/izY9Le3QWtu7xkHq7bjJnuE5yGI.jpg",
            "original_language": "en",
            "original_title": "On the Basis of Sex",
            "genre_ids": [
                18,
                36
            ],
            "backdrop_path": "/3lZuky17k1ihovh6mvFyGfgLIi4.jpg",
            "adult": false,
            "overview": "Young lawyer Ruth Bader Ginsburg teams with her husband Marty to bring a groundbreaking case before the U.S. Court of Appeals and overturn a century of sex discrimination.",
            "release_date": "2018-12-25"
        },
        {
            "vote_count": 236,
            "id": 300681,
            "video": false,
            "vote_average": 5.8,
            "title": "Replicas",
            "popularity": 32.763,
            "poster_path": "/hhPBTAn9b4TYOxc1JYNsX4BFAlW.jpg",
            "original_language": "en",
            "original_title": "Replicas",
            "genre_ids": [
                53,
                878
            ],
            "backdrop_path": "/sHPfBVFq7dlnXCz1zFdbEdwcBDJ.jpg",
            "adult": false,
            "overview": "A scientist becomes obsessed with returning his family to normalcy after a terrible accident.",
            "release_date": "2018-10-25"
        },
        {
            "vote_count": 92,
            "id": 438674,
            "video": false,
            "vote_average": 6.8,
            "title": "Dragged Across Concrete",
            "popularity": 31.73,
            "poster_path": "/fVG4a27ImyPS4vvNMjCtan3QhDl.jpg",
            "original_language": "en",
            "original_title": "Dragged Across Concrete",
            "genre_ids": [
                18,
                80,
                28,
                53
            ],
            "backdrop_path": "/sZUbg9K8zGiUmeVYSlUNelVcuzM.jpg",
            "adult": false,
            "overview": "Two policemen, one an old-timer, the other his volatile younger partner, find themselves suspended when a video of their strong-arm tactics becomes the media's cause du jour. Low on cash and with no other options, these two embittered soldiers descend into the criminal underworld to gain their just due, but instead find far more than they wanted awaiting them in the shadows.",
            "release_date": "2019-02-21"
        },
        {
            "vote_count": 39,
            "id": 458253,
            "video": false,
            "vote_average": 7.2,
            "title": "Missing Link",
            "popularity": 31.51,
            "poster_path": "/gEkKHiiQRVUSX15Iwo8VFydXrtu.jpg",
            "original_language": "en",
            "original_title": "Missing Link",
            "genre_ids": [
                16,
                35,
                12,
                14,
                10751
            ],
            "backdrop_path": "/ob4XnKBqAh1rg381hayebJx6EkE.jpg",
            "adult": false,
            "overview": "The charismatic Sir Lionel Frost considers himself to be the world's foremost investigator of myths and monsters. Trouble is, none of his small-minded, high-society peers seems to recognize this. Hoping to finally gain acceptance from these fellow adventurers, Sir Lionel travels to the Pacific Northwest to prove the existence of a legendary creature known as the missing link.",
            "release_date": "2019-04-04"
        },
        {
            "vote_count": 237,
            "id": 351044,
            "video": false,
            "vote_average": 6.5,
            "title": "Welcome to Marwen",
            "popularity": 31.201,
            "poster_path": "/o45VIAUYDcVCGuzd43l8Sr5Dfti.jpg",
            "original_language": "en",
            "original_title": "Welcome to Marwen",
            "genre_ids": [
                18,
                35,
                14
            ],
            "backdrop_path": "/q9hnJ9SzwcF30seRtXEzLd5l1gw.jpg",
            "adult": false,
            "overview": "When a devastating attack shatters Mark Hogancamp and wipes away all memories, no one expected recovery. Putting together pieces from his old and new life, Mark meticulously creates a wondrous town named Marwen where he can heal and be heroic. As he builds an astonishing art installation — a testament to the most powerful women he knows — through his fantasy world, he draws strength to triumph in the real one.",
            "release_date": "2018-12-21"
        },
        {
            "vote_count": 158,
            "id": 454294,
            "video": false,
            "vote_average": 6.1,
            "title": "The Kid Who Would Be King",
            "popularity": 29.14,
            "poster_path": "/kBuvLX6zynQP0sjyqbXV4jNaZ4E.jpg",
            "original_language": "en",
            "original_title": "The Kid Who Would Be King",
            "genre_ids": [
                28,
                12,
                14,
                10751
            ],
            "backdrop_path": "/jmbgxBd86MshzQQvv5laKvOKoMm.jpg",
            "adult": false,
            "overview": "Old-school magic meets the modern world when young Alex stumbles upon the mythical sword Excalibur. He soon unites his friends and enemies, and they become knights who join forces with the legendary wizard Merlin. Together, they must save mankind from the wicked enchantress Morgana and her army of supernatural warriors.",
            "release_date": "2019-01-16"
        },
        {
            "vote_count": 1088,
            "id": 429197,
            "video": false,
            "vote_average": 7.1,
            "title": "Vice",
            "popularity": 29.057,
            "poster_path": "/1gCab6rNv1r6V64cwsU4oEr649Y.jpg",
            "original_language": "en",
            "original_title": "Vice",
            "genre_ids": [
                18,
                36,
                35
            ],
            "backdrop_path": "/7TTlvADXSxg0yzlGTZFExmw4TSC.jpg",
            "adult": false,
            "overview": "George W. Bush picks Dick Cheney, the CEO of Halliburton Co., to be his Republican running mate in the 2000 presidential election. No stranger to politics, Cheney's impressive résumé includes stints as White House chief of staff, House Minority Whip and defense secretary. When Bush wins by a narrow margin, Cheney begins to use his newfound power to help reshape the country and the world.",
            "release_date": "2018-12-25"
        },
        {
            "vote_count": 467,
            "id": 527641,
            "video": false,
            "vote_average": 8.2,
            "title": "Five Feet Apart",
            "popularity": 28.93,
            "poster_path": "/kreTuJBkUjVWePRfhHZuYfhNE1T.jpg",
            "original_language": "en",
            "original_title": "Five Feet Apart",
            "genre_ids": [
                10749,
                18
            ],
            "backdrop_path": "/d7wa3VpUpKDQ7GG9EMw8zSJCFoI.jpg",
            "adult": false,
            "overview": "Seventeen-year-old Stella spends most of her time in the hospital as a cystic fibrosis patient. Her life is full of routines, boundaries and self-control -- all of which get put to the test when she meets Will, an impossibly charming teen who has the same illness.",
            "release_date": "2019-03-15"
        },
        {
            "vote_count": 86,
            "id": 411728,
            "video": false,
            "vote_average": 7.3,
            "title": "The Professor and the Madman",
            "popularity": 28.93,
            "poster_path": "/gtGCDLhfjW96qVarwctnuTpGOtD.jpg",
            "original_language": "en",
            "original_title": "The Professor and the Madman",
            "genre_ids": [
                18,
                36,
                9648
            ],
            "backdrop_path": "/zhNfM1CSQqJtIqelwlK9iKtSd9P.jpg",
            "adult": false,
            "overview": "Professor James Murray begins work compiling words for the first edition of the Oxford English Dictionary in the mid 19th century, and receives over 10,000 entries from a patient at Broadmoor Criminal Lunatic Asylum, Dr. William Minor.",
            "release_date": "2019-03-07"
        },
        {
            "vote_count": 666,
            "id": 361292,
            "video": false,
            "vote_average": 7.1,
            "title": "Suspiria",
            "popularity": 28.93,
            "poster_path": "/dzWTnkert9EoiPWldWJ15dnfAFl.jpg",
            "original_language": "en",
            "original_title": "Suspiria",
            "genre_ids": [
                53,
                9648,
                27,
                14
            ],
            "backdrop_path": "/AmO8I38bkHwKhgxPNrd6djBQyPU.jpg",
            "adult": false,
            "overview": "A darkness swirls at the center of a world-renowned dance company, one that will engulf the troupe's artistic director, an ambitious young dancer and a grieving psychotherapist. Some will succumb to the nightmare, others will finally wake up.",
            "release_date": "2018-10-11"
        }
    ],
    "page": 2,
    "total_results": 1089,
    "dates": {
        "maximum": "2019-05-06",
        "minimum": "2019-03-19"
    },
    "total_pages": 55
}